..............
----------------------------------------------------------------------
Ran 14 tests in 0.023s

OK
Name             Stmts   Miss Branch BrPart  Cover   Missing
------------------------------------------------------------
Collatz.py          67     11     36      5    81%   51->52, 52, 60->61, 61-66, 83->84, 84, 86->87, 87-89, 94->92
TestCollatz.py      59      0      0      0   100%
------------------------------------------------------------
TOTAL              126     11     36      5    88%
