..................
----------------------------------------------------------------------
Ran 18 tests in 0.342s

OK
Name             Stmts   Miss Branch BrPart  Cover   Missing
------------------------------------------------------------
Collatz.py          36      0     14      0   100%
TestCollatz.py      75      0      0      0   100%
------------------------------------------------------------
TOTAL              111      0     14      0   100%
