......................
----------------------------------------------------------------------
Ran 22 tests in 18.467s

OK
Name             Stmts   Miss Branch BrPart  Cover   Missing
------------------------------------------------------------
Collatz.py          58      0     28      0   100%
TestCollatz.py      92      0      0      0   100%
------------------------------------------------------------
TOTAL              150      0     28      0   100%
